Company_ID,Company-Name,Headquaters,Net-Worth
1,Anheuser-Busch InBev (AB InBev),"Leuven, Belgium",184.3
2,Diageo,"London, United Kingdom",89
3,Heineken Holding,"Amsterdam, Netherlands",51
4,Pernod Ricard,"Paris, France",43
5,Kewichow Moutai,"Guizhou, China",21.4
6,Asahi Group Holdings,"Sumida, Tokyo, Japan",19
7,Kirin Holdings,"Nakano, Tokyo, Japan",16.6
8,Constellation Brands,"New York, United States",13.6
9,Molson Coors Brewing,"Colorado, United States",10.9
10,Wuliangye Yibin,"Yibin, China",4.4
